assignment_2/Hot_Encodding_FSM/fsm_sim.vcd
$date
	Thu Feb 22 00:02:26 2024
$end
$version
	Icarus Verilog
$end
$timescale
	1s
$end
$scope module fsm_tb $end
$var wire 2 ! out [1:0] $end
$var reg 1 " clock_t $end
$var reg 2 # in [1:0] $end
$var reg 1 $ reset_t $end
$scope module tb_obj $end
$var wire 1 " clk $end
$var wire 2 % in [1:0] $end
$var wire 2 & out [1:0] $end
$var wire 1 $ rst $end
$var parameter 8 ' s1 $end
$var parameter 8 ( s2 $end
$var parameter 8 ) s3 $end
$var parameter 8 * s4 $end
$var parameter 8 + s5 $end
$var parameter 8 , s6 $end
$var parameter 8 - s7 $end
$var parameter 8 . s8 $end
$var reg 8 / new_state [7:0] $end
$var reg 2 0 outer [1:0] $end
$var reg 2 1 outery [1:0] $end
$var reg 8 2 state [7:0] $end
$upscope $end
$upscope $end
$enddefinitions $end
$dumpall
b10000000 .
b1000000 -
b100000 ,
b10000 +
b1000 *
b100 )
b10 (
b1 '
$end
#0
$dumpvars
bx 2
bx 1
bx 0
bx /
bx &
bx %
0$
bx #
0"
bx !
$end
#1
b0 !
b0 &
b0 1
b1 2
1$
#10
1"
#15
b1 0
b10 /
b1 #
b1 %
#20
0"
#30
1"
#35
b11 0
b100000 /
b10 #
b10 %
#40
0"
#50
1"
#55
b0 0
b100 /
b11 #
b11 %
#60
0"
#70
1"
#75
b1 0
b1 /
b0 #
b0 %
#80
0"
#90
1"
#95
b10 /
b1 #
b1 %
#100
0"
#110
1"
#111
0$
#112
b1 /
b0 #
b0 %
#120
0"
#130
b1 !
b1 &
b1 1
1"
#134
b10 /
b1 #
b1 %
#140
0"
#150
b11 0
b100 /
b10 2
1"
#154
b10 0
b10 /
b10 #
b10 %
#160
0"
#170
b10 !
b10 &
b10 1
1"
#174
b11 0
b1 /
b0 #
b0 %
#180
0"
#190
b1 0
b11 !
b11 &
b11 1
b1 2
1"
#194
b11 0
b100000 /
b10 #
b10 %
#200
0"
#210
b10000000 /
b100000 2
1"
#214
b1 0
b100000 /
b0 #
b0 %
#220
0"
#230
b1 !
b1 &
b1 1
1"
#234
b0 0
b1 /
b1 #
b1 %
#240
0"
#250
b1 0
b10 /
b0 !
b0 &
b0 1
b1 2
1"
#260
0"
#270
b11 0
b100 /
b1 !
b1 &
b1 1
b10 2
1"
#274
b10 0
b1000 /
b11 #
b11 %
#280
0"
#290
b11 0
b10 !
b10 &
b10 1
b1000 2
1"
#294
b100 /
b0 #
b0 %
#300
0"
#310
b1 0
b100000 /
b11 !
b11 &
b11 1
b100 2
1"
#314
b0 0
b100 /
b10 #
b10 %
#320
0"
#330
b0 !
b0 &
b0 1
1"
#334
b1 0
b100000 /
b0 #
b0 %
#340
0"
#350
b1 !
b1 &
b1 1
b100000 2
1"
#354
b0 0
b1 /
b1 #
b1 %
#360
0"
#370
b1 0
b10 /
b0 !
b0 &
b0 1
b1 2
1"
#374
b0 0
b100 /
b11 #
b11 %
#380
0"
#390
b1000 /
b100 2
1"
#394
b1 0
b10000 /
b1 #
b1 %
#400
0"
#410
b0 0
b10000000 /
b1 !
b1 &
b1 1
b10000 2
1"
#414
b1 0
b100000 /
b0 #
b0 %
#420
0"
#430
b100000 2
1"
#434
b0 0
b1 /
b1 #
b1 %
#440
0"
#450
b1 0
b10 /
b0 !
b0 &
b0 1
b1 2
1"
#460
0"
#470
b11 0
b100 /
b1 !
b1 &
b1 1
b10 2
1"
#480
0"
#490
b1 0
b10000 /
b11 !
b11 &
b11 1
b100 2
1"
#494
b0 0
b1000 /
b11 #
b11 %
#500
0"
#510
b11 0
b0 !
b0 &
b0 1
b1000 2
1"
#514
b1 0
b10000 /
b1 #
b1 %
#520
0"
#530
b0 0
b10000000 /
b1 !
b1 &
b1 1
b10000 2
1"
#534
b1 0
b100000 /
b0 #
b0 %
#540
0"
#550
b100000 2
1"
#554
b0 0
b1 /
b1 #
b1 %
#560
0"
#570
b1 0
b10 /
b0 !
b0 &
b0 1
b1 2
1"
#574
b0 0
b100 /
b11 #
b11 %
#580
0"
#590
b1000 /
b100 2
1"
#600
0"
#610
b11 0
b1000 2
1"
#614
b1000000 /
b10 #
b10 %
#620
0"
#630
b0 0
b10000000 /
b11 !
b11 &
b11 1
b1000000 2
1"
#634
b1 0
b1000000 /
b0 #
b0 %
#640
0"
#650
b1 !
b1 &
b1 1
1"
#654
b11 0
b11 #
b11 %
#660
0"
#670
b11 !
b11 &
b11 1
1"
#674
b10000 /
b1 #
b1 %
#680
0"
#690
b0 0
b10000000 /
b10000 2
1"
#700
0"
#710
b0 !
b0 &
b0 1
b10000000 2
1"
#720
0"
#730
1"
#734
b10 0
b11 #
b11 %
#740
0"
#750
b10 !
b10 &
b10 1
1"
#754
b0 0
b10 #
b10 %
#760
0"
#770
b0 !
b0 &
b0 1
1"
#774
b11 0
b1000000 /
b0 #
b0 %
#780
0"
#790
b1 0
b11 !
b11 &
b11 1
b1000000 2
1"
#794
b0 0
b10000000 /
b10 #
b10 %
#800
0"
#810
b0 !
b0 &
b0 1
b10000000 2
1"
#814
b11 0
b1000000 /
b0 #
b0 %
#820
0"
#830
b1 0
b11 !
b11 &
b11 1
b1000000 2
1"
#834
b11 0
b10000 /
b1 #
b1 %
#840
0"
#850
b0 0
b10000000 /
b10000 2
1"
#854
b10 0
b1000000 /
b11 #
b11 %
#860
0"
#870
b11 0
b10 !
b10 &
b10 1
b1000000 2
1"
#874
b10000 /
b1 #
b1 %
#880
0"
#890
b0 0
b10000000 /
b11 !
b11 &
b11 1
b10000 2
1"
#894
b11 0
b10 #
b10 %
#900
0"
#910
b0 0
b10000000 2
1"
#914
b11 0
b1000000 /
b0 #
b0 %
#920
0"
#930
b1 0
b1000000 2
1"
#934
b11 0
b10000 /
b1 #
b1 %
#940
0"
#950
b0 0
b10000000 /
b10000 2
1"
#954
b1 0
b100000 /
b0 #
b0 %
#960
0"
#970
b1 !
b1 &
b1 1
b100000 2
1"
#974
b11 0
b10000000 /
b10 #
b10 %
#980
0"
#990
b0 0
b11 !
b11 &
b11 1
b10000000 2
1"
#994
b11 0
b1000000 /
b0 #
b0 %
#1000
0"
#1010
b1 0
b1000000 2
1"
#1014
b11 0
b10000 /
b1 #
b1 %
#1020
0"
#1030
b0 0
b10000000 /
b10000 2
1"
#1034
b1 0
b100000 /
b0 #
b0 %
#1040
0"
#1050
b1 !
b1 &
b1 1
b100000 2
1"
#1054
b11 0
b10000000 /
b11 #
b11 %
#1060
0"
#1070
b10 0
b11 !
b11 &
b11 1
b10000000 2
1"
#1080
0"
#1090
b10 !
b10 &
b10 1
1"
